…
::: {.cell}

```{.r .cell-code}
readabs::read_abs(series_id="A2325846C") |> 
  dplyr::transmute(
    Time = yearquarter(date), 
    CPI = value
  ) -> cpi_qtr
cpi_qtr
```

::: {.cell-output .cell-output-stdout}

```
# A tibble: 311 × 2
   Time        CPI
   <mixtime> <dbl>
 1 1948 Q3    2.59
 2 1948 Q4    2.63
 3 1949 Q1    2.71
 4 1949 Q2    2.74
 5 1949 Q3    2.82
 6 1949 Q4    2.86
 7 1950 Q1    2.9 
 8 1950 Q2    3.02
 9 1950 Q3    3.05
10 1950 Q4    3.17
# ℹ 301 more rows
```
…
::: {.cell}

```{.r .cell-code}
readabs::read_abs(series_id="A130393720C") |> 
  dplyr::transmute(
    Time = yearmonth(date), 
    CPI = value
  ) -> cpi_mth
cpi_mth
```

::: {.cell-output .cell-output-stdout}

```
# A tibble: 25 × 2
   Time        CPI
   <mixtime> <dbl>
 1 2024 Apr   96.4
 2 2024 May   96.2
 3 2024 Jun   96.5
 4 2024 Jul   96.8
 5 2024 Aug   96.5
 6 2024 Sep   96.5
 7 2024 Oct   96.3
 8 2024 Nov   96.7
 9 2024 Dec   97.3
10 2025 Jan   97.6
# ℹ 15 more rows
```
…
::: {.fragment .fade-out fragment-index=1}

::: {.cell}

```{.r .cell-code}
library(tsibble)
tourism
```

::: {.cell-output .cell-output-stdout}

```
# A tsibble: 24,320 x 5 [1Q]
# Key:       Region, State, Purpose [304]
   Quarter Region   State           Purpose  Trips
     <qtr> <chr>    <chr>           <chr>    <dbl>
 1 1998 Q1 Adelaide South Australia Business  135.
 2 1998 Q2 Adelaide South Australia Business  110.
 3 1998 Q3 Adelaide South Australia Business  166.
 4 1998 Q4 Adelaide South Australia Business  127.
 5 1999 Q1 Adelaide South Australia Business  137.
 6 1999 Q2 Adelaide South Australia Business  200.
 7 1999 Q3 Adelaide South Australia Business  169.
 8 1999 Q4 Adelaide South Australia Business  134.
 9 2000 Q1 Adelaide South Australia Business  154.
10 2000 Q2 Adelaide South Australia Business  169.
# ℹ 24,310 more rows
```
…
::: {.cell}

```{.r .cell-code}
library(tsibble)
tourism |> 
  aggregate_index(
    list(quarter(1L), year(1L)), 
    Trips = sum(Trips)
  )
```

::: {.cell-output .cell-output-stdout}

```
# A tsibble: 30,400 x 6 [1Q, 1Y]
# Key:       Region, State, Purpose, .granule [608]
   Quarter   Region         State              Purpose  .granule   Trips
   <mixtime> <chr>          <chr>              <chr>    <mixtime>  <dbl>
 1 1998 Q1   Adelaide       South Australia    Business 1 quarter 135.  
 2 1998 Q1   Adelaide       South Australia    Holiday  1 quarter 224.  
 3 1998 Q1   Adelaide       South Australia    Other    1 quarter  58.4 
 4 1998 Q1   Adelaide       South Australia    Visiting 1 quarter 242.  
 5 1998 Q1   Adelaide Hills South Australia    Business 1 quarter   0   
 6 1998 Q1   Adelaide Hills South Australia    Holiday  1 quarter   6.81
 7 1998 Q1   Adelaide Hills South Australia    Other    1 quarter   0   
 8 1998 Q1   Adelaide Hills South Australia    Visiting 1 quarter   2.99
 9 1998 Q1   Alice Springs  Northern Territory Business 1 quarter   7.54
10 1998 Q1   Alice Springs  Northern Territory Holiday  1 quarter   8.15
# ℹ 30,390 more rows
```
…
::: {.cell-output .cell-output-stdout}

```
# A tsibble: 42,500 x 6 [1Q, 1Y]
# Key:       State, Purpose, Region, .granule [850]
```


:::

::: {.cell-output .cell-output-stdout}

```
   Quarter   State  Purpose      Region       .granule  Trips
   <mixtime> <chr*> <chr*>       <chr*>       <mixtime> <dbl>
 1 1998 Q1   ACT    Business     Canberra     1 quarter 150. 
 2 1998 Q1   ACT    Business     <aggregated> 1 quarter 150. 
 3 1998 Q1   ACT    Holiday      Canberra     1 quarter 196. 
 4 1998 Q1   ACT    Holiday      <aggregated> 1 quarter 196. 
 5 1998 Q1   ACT    Other        Canberra     1 quarter  21.7
 6 1998 Q1   ACT    Other        <aggregated> 1 quarter  21.7
 7 1998 Q1   ACT    Visiting     Canberra     1 quarter 183. 
 8 1998 Q1   ACT    Visiting     <aggregated> 1 quarter 183. 
 9 1998 Q1   ACT    <aggregated> Canberra     1 quarter 551. 
10 1998 Q1   ACT    <aggregated> <aggregated> 1 quarter 551. 
# ℹ 42,490 more rows
```
…
